
1/28/2021 3:53:29 PM
------------------------------------------------------------------------------------------------
Controller Name :- Account
Action Method Name :- ResetPassword
------------------------------------------------------------------------------------------------
Message ---A code must be supplied for password reset.

